{
"home_input1" : "ابحثي عن مقدم خدمة معروف لك",

"menu_home" : "رئيسي",
"menu_history" : "تاريخ العلاجات ",
"menu_update" : "تعديل تفاصيل شخصية",
"menu_supplier" : "تفاصيل لمقدمي الخدمات",
"menu_supplierlogin" : "دخول مقدمي خدمات",
"menu_coupons" : "كوبونات",
"menu_logout" : "تسجيل خروج",
"menu_connectedas" : "مسجل بالموعد",

"coupondetails_date" : "ساري المفعول حتى ",
"coupondetails_price" : "سعر",

"listmain_address" : "عنوان",
"listmain_phone" : "هاتف",
"listmain_cat" : "مجموعات",
"listmain_derug" : "تدريج",


"details_address" : "عنوان",
"details_phone" : "هاتف",
"details_cat" : "مجموعات",
"details_day" : "يوم",
"details_hour" : "ساعة",
"details_price" : "سعر",
"details_nis" : "شيكل جديد",
"details_derug" : "تدريج",




"appointments_day" : "يوم",
"appointments_week" : "اسبوع",
"appointments_search" : "بحث",
"appointments_startdate" : "تاريخ البدء",
"appointments_enddate" : "تاريخ الانهاء",
"appointments_nomatches" : "لم يتمّ العثور على ادوار متاحة ",
"appointments_sugtipul" : "نوع العلاج",
"appointments_address" : "عنوان",
"appointments_phone" : "هاتف",
"appointments_date" : "تاريخ",
"appointments_hour" : "ساعة",

"updateinfo_fullname" : "الأسم الكامل",
"updateinfo_phone" : "هاتف",
"updateinfo_password" : "كلمة السر",

"supplier_fullname" : "الأسم الكامل",
"supplier_phone" : "هاتف",
"supplier_email" : "بريد الكتروني",
"supplier_desc" : "مضمون التوجه ",

"supplierlogin_username" : "اسم المستخدم",
"supplierlogin_password" : "كلمة السر",


"suppliermain_address" : "عنوان",
"suppliermain_phone" : "هاتف",



"supplierpersonal_address" : "عنوان",
"supplierpersonal_area" : "اختر منطقة",
"supplierpersonal_haifa" : "حيفا والشمال",
"supplierpersonal_bearsheva" : "بئر السبع والجنوب",
"supplierpersonal_shefela" : "السهل الساحلي",
"supplierpersonal_sharon" : "شارون",
"supplierpersonal_telaviv" : "تل ابيب وجوش دان",
"supplierpersonal_jeruslem" : "القدس وضواحيها",
"supplierpersonal_email" : "بريد الكتروني",
"supplierpersonal_phone" : "هاتف",
"supplierpersonal_video" : " شريط فيديو",
"supplierpersonal_facebook" : "فايسبوك",
"supplierpersonal_waze" : "WAZE",

"supplierappoint_startdate" : "تاريخ البدء",
"supplierappoint_enddate" : "تاريخ الانهاء",
"supplierappoint_nomatches" : "لم يتمّ العثور على ادوار متاحة ",


"editfreeapp_starttime" : "ساعة البدء",
"editfreeapp_endtime" : "ساعة الانتهاء",


"editappoint_fullname" : "الأسم الكامل",
"editappoint_phone" : "هاتف",
"editappoint_email" : "البريد الالكتروني",
"editappoint_date" : "تاريخ الموعد",
"editappoint_starthour" : "ساعة البدء",
"editappoint_endhour" : "ساعة الانتهاء",
"editappoint_subcat" : "نوع العلاج",
"editappoint_desc" : "وصف",



"register_fullname" : "الأسم الكامل",
"register_phone" : "هاتف",
"register_area" : "اختر منطقة",
"register_haifa" : "حيفا والشمال",
"register_beersheva" : "بئر السبع والجنوب",
"register_shefela" : "السهل الساحلي",
"register_sharon" : "شارون",
"register_telaviv" : "تل ابيب وجوش دان",
"register_jeruslem" : "القدس وضواحيها",
"register_email" : "عنوان البريد الالكتروني",
"register_password" : "اختر كلمة سر",

"login_email" : "عنوان البريد الالكتروني",
"login_password" : "كلمة السر",


"search_area" : "اختر منطقة",
"search_selectarea" : "يجب اختيار المنطقة",
"search_haifa" : "حيفا والشمال",
"search_bearsheva" : "بئر السبع والجنوب",
"search_shefela" : "السهل الساحلي",
"search_sharon" : "شارون",
"search_telaviv" : "تل ابيب وجوش دان",
"search_jeruslem" : "القدس وضواحيها",
"search_subcat" : "نوع العلاج",
"search_cat" : "اختر المجموعة",
"search_appointment" : "موعد",
"search_service" : " مقدمي الخدمات",
"search_date" : "اختر تاريخ",


"list_searchby" : "بحث عن موعد حسب",
"list_location" : "مكان",
"list_price" : "سعر",
"list_day" : "يوم",
"list_hour" : "ساعة",
"list_price" : "سعر",
"list_derug" : "تدريج",
"list_phone" : "هاتف",
"list_cat" : "مجموعات",


"modal_close" : "ليغلق",

"commentmodal_desc" : "مضمون التعقيب",


"ratings_desc" : "أخبرنا بحرية",
"ratings_send" : "ارسلي",


"searchappoint_searchat" : "ابحثي عن موعد لدى ",
"searchappoint_subcat" : "نوع العلاج",
"searchappoint_date" : "اختر تاريخ",
"searchappoint_day" : "يوم",
"searchappoint_hour" : "ساعة",
"searchappoint_nis" : "شيكل جديد",
"searchappoint_price" : "سعر",
"searchappoint_derug" : "تدريج",


"addappoint_activetime" : "ادخال مواعيد النشاط",
"addappoint_newapp" : "ادخال موعد جديد",
"addappoint_fullname" : "الأسم الكامل",
"addappoint_phone" : "هاتف",
"addappoint_email" : "بريد الكتروني",
"addappoint_desc" : "تفاصيل",
"addappoint_date" : "تاريخ",
"addappoint_subcat" : "نوع العلاج",
"addappoint_cat" : "اختر المجموعة",


"orderedappoinment_day" : "يوم",
"orderedappoinment_week" : "اسبوع",
"orderedappoinment_search" : "بحث",
"orderedappoinment_startdate" : "تاريخ البدء",
"orderedappoinment_enddate" : "تاريخ الانهاء",
"orderedappoinment_nomatches" : "لم يتمّ العثور على ادوار متاحة ",
"orderedappoinment_fullname" : "الأسم الكامل",
"orderedappoinment_email" : "البريد الالكتروني",
"orderedappoinment_date" : "تاريخ الموعد",
"orderedappoinment_starthour" : "ساعة البدء",
"orderedappoinment_endhour" : "ساعة الانتهاء",


"search_modal_searchat" : "ابحثي عن موعد في",
"search_modal_subcat" : "نوع العلاج",
"search_modal_selectdate" : "اختر تاريخ",
"search_modal_day" : "يوم",
"search_modal_hour" : "ساعة",
"search_modal_price" : "سعر",
"search_modal_nis" : "شيكل جديد",
"search_modal_derug" : "تدريج",



"sendbuttonimage" : "arabic/sendbt.png",
"searchbuttonimage1" : "arabic/search_button.png",
"searchbuttonimage2" : "arabic/search_button_1.png",
"searchbuttonimage3" : "arabic/search_button.jpg",

"searchtorimage" : "arabic/search_tor.png",
"ordertorimage" : "arabic/order.png",
"reviewtextimage" : "arabic/review_text.jpg",
"addtorimage" : "arabic/add_tor.png",

"issuedetails" : "arabic/issue_details.png",
"logout" : "arabic/logout.png",
"uploadimage" : "arabic/upload_image.jpg",
"addtorimagepng" : "arabic/addtor.png",
"closeimage" : "arabic/close.jpg",
"delimage" : "arabic/del.png",
"deletetorimage" : "arabic/deletetor.png",
"savedetailsimage" : "arabic/savedetails.png",
"editimage" : "arabic/edit.png",

"registerorloginfirstctrl" : "يجب اولا الدخول أو التسجيل ",
"membersloginctrl" : "دخول مشتركين",
"newmembersregisterctrl" : "التسجيل لمشتركين جدد",
"canceltextctrl" : "الغاء ",
"loadingtextctrl" : "جاري التحميل",
"nomatchestryagainctrl" : "لم يتمّ العثور على نتائج يجب إعادة المحاولة",
"inputsuppliernamectrl" : "يجب إدخال اسم مقدم الخدمة",
"selectareactrl" : "يجب اختيار المنطقة",
"selectpickcatctrl" : "يجب اختيار المجموعة",
"daysoftheweek1ctrl" : "الأحد",
"daysoftheweek2ctrl" : "الإثنين",
"daysoftheweek3ctrl" : "الثلاثاء",
"daysoftheweek4ctrl" : "الاربعاء",
"daysoftheweek5ctrl" : "الخميس",
"daysoftheweek6ctrl" : "الجمعة",
"daysoftheweek7ctrl" : "السبت",
"confirmtorctrl" : "هل نصادق على تحديد الموعد؟",
"oktextctrl" : "موافقة",
"thankyoutorctrl" : "شكرا, تم حجز دورك بنجاح",
"inputcommenttextctrl" : "ادخل/ ي مضمون التعقيب",
"sendtextctrl" : "إرسال",
"thankyoucommentctrl" : "تم تلقي تعقيبك بنجاح, شكرا طاقمMAMI ",
"cantratetwicectrl" : "لا يمكن تدريج هذه المصلحة مرتين ",
"inputderugctrl" : "ادخل/ي التدريج ",
"thankyouderugctrl" : "شكرا, تم تلقي التدريج بنجاح ",
"selectderugctrl" : "يجب اختيار التدريج",
"novideofoundtrylaterctrl" : "لم يتمّ العثور على شريط فيديو يجب المحاولة في موعد لاحق ",
"nomatchestrydifftimehourctrl" : "لم يتمّ العثور على نتائج يجب إعادة المحاولة في تاريخ أو ساعة اخرى",
"selectcategoryctrl" : "اختر/ ي المجموعة",
"inputstartdatectrl" : "يجب ادخال تاريخ البدء",
"inputenddatectrl" : "يجب ادخال تاريخ الانهاء",
"deletetorconfirmctrl" : "هل تصادق على شطب الموعد؟",
"confirmchangetorctrl" : "هل تصادق على تغيير الموعد؟",
"inputfullnamectrl" : "يجب تعبة الاسم الكامل",
"inputphonectrl" : "يجب ادخال رقم الهاتف",
"inputemailctrl" : "يجب ادخال عنوان البريد الالكتروني",
"formsentctrl" : "تم إرسال الاستمارة بنجاح",
"inputusernamectrl" : "يجب تعبئة اسم المستخدم",
"inputpasswordctrl" : "يجب ادخال كلمة السر",
"wrongusernamectrl" : "اسم المستخدم أو كلمة السر غير صحيحة يرجى التصحيح",
"selectoptionctrl" : "اختر/ اختاري الامكانية:",
"cameractrl" : "الة تصوير",
"galleryctrl" : "معرض الصور",
"detailssavedctrl" : "تم حفظ التفاصيل بنجاح",
"notordatefoundctrl" : "لم يتمّ العثور على مواعيد في التاريخ المطلوب",
"activitytimectrl" : "مواعيد نشاط المصلحة",
"tortextctrl" : "موعد",
"confirmdeletectrl" : "هل نصادق على الحذف",
"okdeletedctrl" : "تم الحذف بنجاح",
"onedayctrl" : "الأحد",
"twodayctrl" : "الإثنين",
"threedayctrl" : "الثلاثاء",
"fourdayctrl" : "الاربعاء",
"fivedayctrl" : "الخميس",
"sixdayctrl" : "الجمعة",
"sevendayctrl" : "السبت",
"tortimeconflictctrl" : "موعد النشاط المذكور يتعارض مع علاج موجود يرجى المحاولة بموعد لآخر",
"torchangedfreectrl" : "لقد اصبح الدور متاحا هل ترغب في تحديد موعد جديد أو العودة إلى جدول المواعيد؟",
"backtorimctrl" : "عودة إلى المواعيد",
"newtorctrl" : "موعد جديد",
"selectsubcatctrl" : "يجب اختيار نوع العلاج",
"selecttimectrl" : "اختاري ساعة",
"inputtordatectrl" : "يجب إدخال تاريخ الموعد",
"inputstarttimectrl" : "يجب ادخال ساعة البدء",
"inputendtimectrl" : "يجب ادخال ساعة الانهاء",
"cantaddctrl" : "لا يمكن الإضافة",
"previousdayctrl" : "ليوم سابق",
"starttimecantbelargectrl" : "ساعة البدء لا يمكن أن تكون أكبر من ساعة الانتهاء",
"toraddokctrl" : "تم اضافة الموعد بنجاح",
"cantaddtortimedatectrl" : "لا يمكن اضافة الموعد, التاريخ والساعة التي تم اختيارها في غير مواعيد نشاط المزوّد ",
"cantaddtortimedatectrl1" : "אין אפשרות להוסיף את התור , התאריך והשעה שנבחרו לא בזמני הפעילות",
"thankyouderugredirectctrl" : "شكرا جزيلا, تم تلقي تفاصيل تعقيبك بنجاح, يتم تحويلك إلى الصفحة الرئيسية",
"notratedquestionctrl" : "لم ترتب سؤال رقم  ",
"fillinemailctrl" : "يجب ادخال عنوان البريد الالكتروني",
"fillinpasswordctrl" : "يجب ادخال كلمة السر",
"wrongdetailsctrl" : "تفاصيل الاتصال غير صحيحة يجب إعادة المحاولة  ",
"fillinfullnamectrl" : "يجب ادخال الاسم الكامل",
"fillinphonectrl" : "يجب ادخال رقم الهاتف",
"emailinusectrl" : "عنوان البريد الالكتروني مُستَخدم ادخل عنوان اخر",
"welcomeinctrl" : "مرحبا بك ",
"updatedokctrl" : "تم التحديث بنجاح ",
"fillinaddressctrl" : "يجب ادخال العنوان",
"supplierlogin_forgotpasstext" : "نسيت كلمة السر",
"pleaseagreectrl" : "يجب المصادقة على ",
"termsofusectrl" : "شروط الاستخدام",
"agreetermsctrl" : "يجب المصادقة على شروط الاستخدام ",
"cantaddtorpassedctrl" : "البحث عن أوقات المواعيد التي تم بالفعل",
"usernamenotfoundtryagainctrl" : "اسم المستخدم لم يتم العثور حاول مرة أخرى",
"usernotfoundtryagainctrl" : "المستخدم لم يتم العثور على، الرجاء حاول مرة أخرى",

"addoktextctrl" : "وأضاف بنجاح",
"pluraladdoktext" : "وأضاف بنجاح",

"nofuturetortext" : "לא הוזנו זמני פעילות נוספים (קדימה)"

}