{
"home_input1" : "Search for a service provider you know",
"menu_home" : "Main",
"menu_history" : "Treatment history",
"menu_update" : "Edit personal information",
"menu_supplier" : "Information for service providers",
"menu_supplierlogin" : "Service provider access",
"menu_coupons" : "Coupons",
"menu_logout" : "Disconnect",
"menu_connectedas" : "Logged in as",

"coupondetails_date" : "Valid until",
"coupondetails_price" : "Price",

"listmain_address" : "Address",
"listmain_phone" : "Phone",
"listmain_cat" : "Categories",
"listmain_derug" : "Rating",


"details_address" : "Address",
"details_phone" : "Phone",
"details_cat" : "Categories",
"details_day" : "Day",
"details_hour" : "Time",
"details_price" : "Price",
"details_nis" : "NIS",
"details_derug" : "Rating",




"appointments_day" : "Day",
"appointments_week" : "Week",
"appointments_search" : "Search",
"appointments_startdate" : "Start date",
"appointments_enddate" : "End date",
"appointments_nomatches" : "No open appointments were found",
"appointments_sugtipul" : "Treatment type",
"appointments_address" : "Address",
"appointments_phone" : "Phone",
"appointments_date" : "Date",
"appointments_hour" : "Time",

"updateinfo_fullname" : "Full name",
"updateinfo_phone" : "Phone",
"updateinfo_password" : "Password",

"supplier_fullname" : "Full name",
"supplier_phone" : "Phone",
"supplier_email" : "Email address",
"supplier_desc" : "Inquiry content",

"supplierlogin_username" : "Username",
"supplierlogin_password" : "Password",


"suppliermain_address" : "Address",
"suppliermain_phone" : "Phone",



"supplierpersonal_address" : "Address",
"supplierpersonal_area" : "Select area",
"supplierpersonal_haifa" : "Haifa and the North",
"supplierpersonal_bearsheva" : "Beer Sheva and the South",
"supplierpersonal_shefela" : "The Shfela",
"supplierpersonal_sharon" : "The Sharon",
"supplierpersonal_telaviv" : "Tel Aviv and Gush Dan",
"supplierpersonal_jeruslem" : "Jerusalem and the Area",
"supplierpersonal_email" : "Email",
"supplierpersonal_phone" : "Phone",
"supplierpersonal_video" : "Video",
"supplierpersonal_facebook" : "Facebook",
"supplierpersonal_waze" : "Waze",

"supplierappoint_startdate" : "Start date",
"supplierappoint_enddate" : "End date",
"supplierappoint_nomatches" : "No open appointments were found",


"editfreeapp_starttime" : "Start time",
"editfreeapp_endtime" : "End time",


"editappoint_fullname" : "Full name",
"editappoint_phone" : "Phone",
"editappoint_email" : "Email",
"editappoint_date" : "Date of appointment",
"editappoint_starthour" : "Start time",
"editappoint_endhour" : "End time",
"editappoint_subcat" : "Treatment type",
"editappoint_desc" : "Description",



"register_fullname" : "Full name",
"register_phone" : "Phone",
"register_area" : "Select area",
"register_haifa" : "Haifa and the North",
"register_beersheva" : "Beer Sheva and the South",
"register_shefela" : "The Shfela",
"register_sharon" : "The Sharon",
"register_telaviv" : "Tel Aviv and Gush Dan",
"register_jeruslem" : "Jerusalem and the Area",
"register_email" : "Email address",
"register_password" : "Choose password",

"login_email" : "Email address",
"login_password" : "Password",


"search_area" : "Select area",
"search_selectarea" : "Select area",
"search_haifa" : "Haifa and the North",
"search_bearsheva" : "Beer Sheva and the South",
"search_shefela" : "The Shfela",
"search_sharon" : "The Sharon",
"search_telaviv" : "Tel Aviv and Gush Dan",
"search_jeruslem" : "Jerusalem and the Area",
"search_subcat" : "Treatment type",
"search_cat" : "Select category",
"search_appointment" : "Appointment",
"search_service" : "Service providers",
"search_date" : "Select date",


"list_searchby" : "Search appointment by",
"list_location" : "Location",
"list_price" : "Price",
"list_day" : "Day",
"list_hour" : "Time",
"list_price" : "Price",
"list_derug" : "Rating",
"list_phone" : "Phone",
"list_cat" : "Categories",


"modal_close" : "Close",

"commentmodal_desc" : "Comment content",


"ratings_desc" : "Tell us freely",
"ratings_send" : "Send",


"searchappoint_searchat" : "Appointment with",
"searchappoint_subcat" : "Treatment type",
"searchappoint_date" : "Select date",
"searchappoint_day" : "Day",
"searchappoint_hour" : "Time",
"searchappoint_nis" : "NIS",
"searchappoint_price" : "Price",
"searchappoint_derug" : "Rating",


"addappoint_activetime" : "Enter activity hours",
"addappoint_newapp" : "Enter new appointment",
"addappoint_fullname" : "Full name",
"addappoint_phone" : "Phone",
"addappoint_email" : "Email address",
"addappoint_desc" : "Information",
"addappoint_date" : "Date",
"addappoint_subcat" : "Treatment type",
"addappoint_cat" : "Select category",


"orderedappoinment_day" : "Day",
"orderedappoinment_week" : "Week",
"orderedappoinment_search" : "Searching",
"orderedappoinment_startdate" : "Start date",
"orderedappoinment_enddate" : "End date",
"orderedappoinment_nomatches" : "No open appointments were found",
"orderedappoinment_fullname" : "Full name",
"orderedappoinment_email" : "Email",
"orderedappoinment_date" : "Date of appointment",
"orderedappoinment_starthour" : "Start time",
"orderedappoinment_endhour" : "End time",


"search_modal_searchat" : "Search for an appointment on",
"search_modal_subcat" : "Treatment type",
"search_modal_selectdate" : "Select date",
"search_modal_day" : "Day",
"search_modal_hour" : "Time",
"search_modal_price" : "Price",
"search_modal_nis" : "NIS",
"search_modal_derug" : "Rating",



"sendbuttonimage" : "english/sendbt.png",
"searchbuttonimage1" : "english/search_button.png",
"searchbuttonimage2" : "english/search_button_1.png",
"searchbuttonimage3" : "english/search_button.jpg",

"searchtorimage" : "english/search_tor.png",
"ordertorimage" : "english/order.png",
"reviewtextimage" : "english/review_text.jpg",
"addtorimage" : "english/add_tor.png",

"issuedetails" : "english/issue_details.png",
"logout" : "english/logout.png",
"uploadimage" : "english/upload_image.jpg",
"addtorimagepng" : "english/addtor.png",
"closeimage" : "english/close.jpg",
"delimage" : "english/del.png",
"deletetorimage" : "english/deletetor.png",
"savedetailsimage" : "english/savedetails.png",
"editimage" : "english/edit.png",

"registerorloginfirstctrl" : "Please login or register first",
"membersloginctrl" : "Member login",
"newmembersregisterctrl" : "New member registration",
"canceltextctrl" : "Cancel",
"loadingtextctrl" : "Loading",
"nomatchestryagainctrl" : "No results were found, please try again  ",
"inputsuppliernamectrl" : "Please enter the name of a service provider",
"selectareactrl" : "Please select area",
"selectpickcatctrl" : "Please select category",
"daysoftheweek1ctrl" : "Sunday",
"daysoftheweek2ctrl" : "Monday",
"daysoftheweek3ctrl" : "Tuesday",
"daysoftheweek4ctrl" : "Wednesday",
"daysoftheweek5ctrl" : "Thursday",
"daysoftheweek6ctrl" : "Friday",
"daysoftheweek7ctrl" : "Saturday",
"confirmtorctrl" : "Confirm appointment?",
"oktextctrl" : "Confirm",
"thankyoutorctrl" : "Thank you, your appointment was booked successfully",
"inputcommenttextctrl" : "Enter comment content",
"sendtextctrl" : "Send",
"thankyoucommentctrl" : "Your comment was received successfully, thank you from the MAMI team",
"cantratetwicectrl" : "This business cannot be rated twice",
"inputderugctrl" : "Enter rating",
"thankyouderugctrl" : "Thank you, your rating was received successfully",
"selectderugctrl" : "Please select rating   ",
"novideofoundtrylaterctrl" : "No video was found, please try again later",
"nomatchestrydifftimehourctrl" : "No results were found, please try again with different time or date",
"selectcategoryctrl" : "Select category",
"inputstartdatectrl" : "Please enter a start date",
"inputenddatectrl" : "Please enter an end date",
"deletetorconfirmctrl" : "Confirm appointment cancellation?",
"confirmchangetorctrl" : "Confirm appointment change?",
"inputfullnamectrl" : "Please provide a full name",
"inputphonectrl" : "Please provide a phone number",
"inputemailctrl" : "Please provide an email address",
"formsentctrl" : "The form was sent successfully",
"inputusernamectrl" : "Please provide a username",
"inputpasswordctrl" : "Please provide a password",
"wrongusernamectrl" : "Wrong username or password, please correct",
"selectoptionctrl" : "Select option:",
"cameractrl" : "Camera",
"galleryctrl" : "Photo gallery",
"detailssavedctrl" : "The information was saved successfully",
"notordatefoundctrl" : "No appointments were found on the selected date",
"activitytimectrl" : "Business activity hours",
"tortextctrl" : "Appointment",
"confirmdeletectrl" : "Confirm deletion",
"okdeletedctrl" : "Deleted successfully",
"onedayctrl" : "Sunday",
"twodayctrl" : "Monday",
"threedayctrl" : "Tuesday",
"fourdayctrl" : "Wednesday",
"fivedayctrl" : "Thursday",
"sixdayctrl" : "Friday",
"sevendayctrl" : "Saturday",
"tortimeconflictctrl" : "This activity time conflicts with an existing treatment, please try another time",
"torchangedfreectrl" : "The appointment became open would you like to schedule a new appointment or return to the appointment schedule?",
"backtorimctrl" : "Back to appointments",
"newtorctrl" : "New appointment",
"selectsubcatctrl" : "A treatment type must be selected",
"selecttimectrl" : "Select time",
"inputtordatectrl" : "Please enter date of appointment",
"inputstarttimectrl" : "A start time must be entered",
"inputendtimectrl" : "An end time must be entered",
"cantaddctrl" : "Unable to add",
"previousdayctrl" : "To previous day",
"starttimecantbelargectrl" : "Start time cannot be later than end time",
"toraddokctrl" : "The appointment was added successfully",
"cantaddtortimedatectrl" : "The appointment cannot be added, the selected date and time are not within the vendor's activity hours",
"cantaddtortimedatectrl1" : "Unable to add appointment, the selected date and time is not within service hours",
"thankyouderugredirectctrl" : "Thank you very much, your feedback was received successfully, you are transferred back to the main page",
"notratedquestionctrl" : "You did not rate question number ",
"fillinemailctrl" : "Please enter an email address",
"fillinpasswordctrl" : "Please enter a password",
"wrongdetailsctrl" : "Incorrect login details, please try again",
"fillinfullnamectrl" : "Please enter a full name",
"fillinphonectrl" : "Please enter a phone number",
"emailinusectrl" : "This email is being used, please enter a different email address",
"welcomeinctrl" : "Welcome ",
"updatedokctrl" : "Updated successfully",
"fillinaddressctrl" : "An address must be entered",
"supplierlogin_forgotpasstext" : "Forgot my password",
"pleaseagreectrl" : "Please confirm",
"termsofusectrl" : "Terms of use",
"agreetermsctrl" : "The terms of use must be accepted",
"usernamenotfoundtryagainctrl" : "Username not found, try again",
"usernotfoundtryagainctrl" : "User Not Found, Please Try Again",

"addoktextctrl" : "Added successfully",
"pluraladdoktext" : "Successfully added",

"nofuturetortext" : "future activity hours have not specified"

}