{
    "prepare_queue": {
        "installed": [],
        "uninstalled": []
    },
    "config_munge": {
        "files": {}
    },
    "installed_plugins": {
        "cordova-plugin-camera": {
            "PACKAGE_NAME": "com.ionicframework.mami562879"
        },
        "cordova-plugin-datepicker": {
            "PACKAGE_NAME": "com.ionicframework.mami562879"
        },
        "cordova-plugin-facebook4": {
            "APP_ID": "159180647800942",
            "APP_NAME": "mami",
            "PACKAGE_NAME": "com.ionicframework.mami562879"
        },
        "cordova-plugin-file": {
            "PACKAGE_NAME": "com.ionicframework.mami562879"
        },
        "cordova-plugin-file-transfer": {
            "PACKAGE_NAME": "com.ionicframework.mami562879"
        },
        "cordova-plugin-inappbrowser": {
            "PACKAGE_NAME": "com.ionicframework.mami562879"
        },
        "cordova-plugin-listpicker": {
            "PACKAGE_NAME": "com.ionicframework.mami562879"
        },
        "cordova-plugin-splashscreen": {
            "PACKAGE_NAME": "com.ionicframework.mami562879"
        },
        "cordova-plugin-whitelist": {
            "PACKAGE_NAME": "com.ionicframework.mami562879"
        },
        "onesignal-cordova-plugin": {
            "PACKAGE_NAME": "com.ionicframework.mami562879"
        },
        "cordova-plugin-geolocation": {
            "GEOLOCATION_USAGE_DESCRIPTION": " ",
            "PACKAGE_NAME": "com.ionicframework.mami562879"
        }
    },
    "dependent_plugins": {
        "cordova-plugin-compat": {
            "PACKAGE_NAME": "com.ionicframework.mami562879"
        }
    }
}